simulation/adder.vcd
$date
	Tue May 31 12:14:19 2022
$end
$version
	Icarus Verilog
$end
$timescale
	1s
$end
$scope module top $end
$var wire 1 ! Branch_Enable $end
$var wire 7 " AluCtl_wire [6:0] $end
$var wire 32 # ALUOut [31:0] $end
$var reg 32 $ A [31:0] $end
$var reg 32 % B [31:0] $end
$var reg 4 & FuncCode [3:0] $end
$var reg 7 ' Opcode [6:0] $end
$var reg 1 ( clk $end
$scope module aluCtrl_inst $end
$var wire 4 ) FuncCode [3:0] $end
$var wire 7 * Opcode [6:0] $end
$var reg 7 + ALUCtl [6:0] $end
$upscope $end
$scope module alu_inst $end
$var wire 32 , A [31:0] $end
$var wire 7 - ALUctl [6:0] $end
$var wire 32 . B [31:0] $end
$var wire 32 / adder_input_b [31:0] $end
$var wire 32 0 bitwise_or [31:0] $end
$var wire 1 1 shift_right_arithmetic $end
$var wire 32 2 adder_output [31:0] $end
$var wire 1 3 adder_input_carry $end
$var reg 32 4 ALUOut [31:0] $end
$var reg 1 ! Branch_Enable $end
$var reg 32 5 shift_right_0 [31:0] $end
$var reg 32 6 shift_right_1 [31:0] $end
$var reg 32 7 shift_right_2 [31:0] $end
$var reg 32 8 shift_right_3 [31:0] $end
$var reg 32 9 shift_right_4 [31:0] $end
$upscope $end
$upscope $end
$enddefinitions $end
#0
$dumpvars
b0 9
b0 8
b0 7
b0 6
b0 5
b0 4
03
b0 2
01
b0 0
b0 /
b0 .
b1111 -
b0 ,
b1111 +
b0 *
b0 )
0(
b0 '
b0 &
b0 %
b0 $
b0 #
b1111 "
0!
$end
#1
1(
#2
0(
#3
1(
#4
0(
#5
b101 #
b101 4
b1100100 2
b0 "
b0 +
b0 -
b1010101 /
b1011111 0
1(
b110011 '
b110011 *
b111 &
b111 )
b1010101 %
b1010101 .
b1111 $
b1111 ,
#6
0(
#7
1(
#8
0(
#9
1(
#10
b1011111 #
b1011111 4
b1 "
b1 +
b1 -
0(
b110 &
b110 )
#11
1(
#12
0(
#13
1(
#14
0(
#15
b10011101111111 #
b10011101111111 4
b10011101111111 2
b10 "
b10 +
b10 -
b1101111 /
b10011101111111 0
b10 7
b100111 6
b10011100010000 5
1(
b0 &
b0 )
b1101111 %
b1101111 .
b10011100010000 $
b10011100010000 ,
#16
0(
#17
1(
#18
0(
#19
1(
#20
b10011010100001 #
b10011010100001 4
b10011010100001 2
b11111111111111111111111110010000 /
13
b110 "
b110 +
b110 -
0(
b1000 &
b1000 )
#21
1(
#22
0(
#23
1(
#24
0(
#25
b1 #
b1 4
03
b10 2
b111 "
b111 +
b111 -
b10 /
b10 0
b0 7
b0 6
b0 5
1(
b10 &
b10 )
b10 %
b10 .
b0 $
b0 ,
#26
0(
#27
1(
#28
0(
#29
1(
#30
b10010 2
b11 "
b11 +
b11 -
b10010 0
b100 #
b100 4
b100 9
b100 8
b10000 7
b10000 6
b10000 5
0(
b101 &
b101 )
b10000 $
b10000 ,
#31
1(
#32
0(
#33
1(
#34
0(
#35
11
b1001 2
b100 "
b100 +
b100 -
b1 /
b1001 0
b1000 8
b1000 7
b1000 6
b1000 5
1(
b1101 &
b1101 )
b1 %
b1 .
b1000 $
b1000 ,
#36
0(
#37
1(
#38
0(
#39
1(
#40
01
b100 2
b101 "
b101 +
b101 -
b10 /
b10 0
b1000 #
b1000 4
b0 9
b0 8
b10 7
b10 6
b10 5
0(
b1 &
b1 )
b10 %
b10 .
b10 $
b10 ,
#41
1(
#42
0(
#43
1(
#44
0(
#45
b101010100 2
b1000 "
b1000 +
b1000 -
b11111111 /
b11111111 0
b10101010 #
b10101010 4
b0 7
b0 6
b0 5
1(
b100 &
b100 )
b11111111 %
b11111111 .
b1010101 $
b1010101 ,
